{
  "pools": [
    {
      "name": "main",
      "rolls": 3,
      "entries": [
        {
          "type": "item",
          "name": "minecraft:bone",
          "weight": 1
        },
        {
          "type": "empty",
          "weight": 3
        }
      ]
    }
  ]
}
