{
  "display": {
    "icon": {
      "item": "sparked:stick_magical"
    },
    "title": {
      "translate": "advancement.sparked:progression.root.title"
    },
    "description": {
      "translate": "advancement.sparked:progression.root.desc"
    },
    "background": "minecraft:textures/gui/advancements/backgrounds/adventure.png",
    "show_toast": false,
    "announce_to_chat": false
  },
  "criteria": {
    "impossible": {
      "trigger": "minecraft:impossible"
    }
  }
}
